^fpu.asm
C:\Users\nik3212\Desktop\ConsoleApplication1\ConsoleApplication1\Debug\fpu.obj
^fpu.asm
C:\Users\nik3212\Desktop\ConsoleApplication1\ConsoleApplication1\Debug\fpu.obj
^fpu.asm
C:\Users\nik3212\Desktop\ConsoleApplication1\ConsoleApplication1\Debug\fpu.obj
^fpu.asm
C:\Users\nik3212\Desktop\ConsoleApplication1\ConsoleApplication1\Debug\fpu.obj
^fpu.asm
C:\Users\nik3212\Desktop\ConsoleApplication1\ConsoleApplication1\Debug\fpu.obj
^fpu.asm
C:\Users\nik3212\Desktop\ConsoleApplication1\ConsoleApplication1\Debug\fpu.obj
^fpu.asm
C:\Users\nik3212\Desktop\ConsoleApplication1\ConsoleApplication1\Debug\fpu.obj
^fpu.asm
C:\Users\nik3212\Desktop\ConsoleApplication1\ConsoleApplication1\Debug\fpu.obj
^fpu.asm
C:\Users\nik3212\Desktop\ConsoleApplication1\ConsoleApplication1\Debug\fpu.obj
